simulation/qsim/8bit_model.msim.vcd
$comment
	File created using the following command:
		vcd file 8bit_model.msim.vcd -direction
$end
$date
	Wed Jul 11 00:43:35 2018
$end
$version
	ModelSim Version 10.5b
$end
$timescale
	1ps
$end

$scope module eight_bit_model_vhd_vec_tst $end
$var wire 1 ! acc_out [7] $end
$var wire 1 " acc_out [6] $end
$var wire 1 # acc_out [5] $end
$var wire 1 $ acc_out [4] $end
$var wire 1 % acc_out [3] $end
$var wire 1 & acc_out [2] $end
$var wire 1 ' acc_out [1] $end
$var wire 1 ( acc_out [0] $end
$var wire 1 ) accD [7] $end
$var wire 1 * accD [6] $end
$var wire 1 + accD [5] $end
$var wire 1 , accD [4] $end
$var wire 1 - accD [3] $end
$var wire 1 . accD [2] $end
$var wire 1 / accD [1] $end
$var wire 1 0 accD [0] $end
$var wire 1 1 alu_out [7] $end
$var wire 1 2 alu_out [6] $end
$var wire 1 3 alu_out [5] $end
$var wire 1 4 alu_out [4] $end
$var wire 1 5 alu_out [3] $end
$var wire 1 6 alu_out [2] $end
$var wire 1 7 alu_out [1] $end
$var wire 1 8 alu_out [0] $end
$var wire 1 9 ar_out [7] $end
$var wire 1 : ar_out [6] $end
$var wire 1 ; ar_out [5] $end
$var wire 1 < ar_out [4] $end
$var wire 1 = ar_out [3] $end
$var wire 1 > ar_out [2] $end
$var wire 1 ? ar_out [1] $end
$var wire 1 @ ar_out [0] $end
$var wire 1 A clk $end
$var wire 1 B dBus [7] $end
$var wire 1 C dBus [6] $end
$var wire 1 D dBus [5] $end
$var wire 1 E dBus [4] $end
$var wire 1 F dBus [3] $end
$var wire 1 G dBus [2] $end
$var wire 1 H dBus [1] $end
$var wire 1 I dBus [0] $end
$var wire 1 J pc_out [7] $end
$var wire 1 K pc_out [6] $end
$var wire 1 L pc_out [5] $end
$var wire 1 M pc_out [4] $end
$var wire 1 N pc_out [3] $end
$var wire 1 O pc_out [2] $end
$var wire 1 P pc_out [1] $end
$var wire 1 Q pc_out [0] $end
$var wire 1 R ram0_out [7] $end
$var wire 1 S ram0_out [6] $end
$var wire 1 T ram0_out [5] $end
$var wire 1 U ram0_out [4] $end
$var wire 1 V ram0_out [3] $end
$var wire 1 W ram0_out [2] $end
$var wire 1 X ram0_out [1] $end
$var wire 1 Y ram0_out [0] $end
$var wire 1 Z test_res $end

$scope module i1 $end
$var wire 1 [ gnd $end
$var wire 1 \ vcc $end
$var wire 1 ] unknown $end
$var wire 1 ^ devoe $end
$var wire 1 _ devclrn $end
$var wire 1 ` devpor $end
$var wire 1 a ww_devoe $end
$var wire 1 b ww_devclrn $end
$var wire 1 c ww_devpor $end
$var wire 1 d ww_test_res $end
$var wire 1 e ww_clk $end
$var wire 1 f ww_acc_out [7] $end
$var wire 1 g ww_acc_out [6] $end
$var wire 1 h ww_acc_out [5] $end
$var wire 1 i ww_acc_out [4] $end
$var wire 1 j ww_acc_out [3] $end
$var wire 1 k ww_acc_out [2] $end
$var wire 1 l ww_acc_out [1] $end
$var wire 1 m ww_acc_out [0] $end
$var wire 1 n ww_accD [7] $end
$var wire 1 o ww_accD [6] $end
$var wire 1 p ww_accD [5] $end
$var wire 1 q ww_accD [4] $end
$var wire 1 r ww_accD [3] $end
$var wire 1 s ww_accD [2] $end
$var wire 1 t ww_accD [1] $end
$var wire 1 u ww_accD [0] $end
$var wire 1 v ww_alu_out [7] $end
$var wire 1 w ww_alu_out [6] $end
$var wire 1 x ww_alu_out [5] $end
$var wire 1 y ww_alu_out [4] $end
$var wire 1 z ww_alu_out [3] $end
$var wire 1 { ww_alu_out [2] $end
$var wire 1 | ww_alu_out [1] $end
$var wire 1 } ww_alu_out [0] $end
$var wire 1 ~ ww_ar_out [7] $end
$var wire 1 !! ww_ar_out [6] $end
$var wire 1 "! ww_ar_out [5] $end
$var wire 1 #! ww_ar_out [4] $end
$var wire 1 $! ww_ar_out [3] $end
$var wire 1 %! ww_ar_out [2] $end
$var wire 1 &! ww_ar_out [1] $end
$var wire 1 '! ww_ar_out [0] $end
$var wire 1 (! ww_dBus [7] $end
$var wire 1 )! ww_dBus [6] $end
$var wire 1 *! ww_dBus [5] $end
$var wire 1 +! ww_dBus [4] $end
$var wire 1 ,! ww_dBus [3] $end
$var wire 1 -! ww_dBus [2] $end
$var wire 1 .! ww_dBus [1] $end
$var wire 1 /! ww_dBus [0] $end
$var wire 1 0! ww_pc_out [7] $end
$var wire 1 1! ww_pc_out [6] $end
$var wire 1 2! ww_pc_out [5] $end
$var wire 1 3! ww_pc_out [4] $end
$var wire 1 4! ww_pc_out [3] $end
$var wire 1 5! ww_pc_out [2] $end
$var wire 1 6! ww_pc_out [1] $end
$var wire 1 7! ww_pc_out [0] $end
$var wire 1 8! ww_ram0_out [7] $end
$var wire 1 9! ww_ram0_out [6] $end
$var wire 1 :! ww_ram0_out [5] $end
$var wire 1 ;! ww_ram0_out [4] $end
$var wire 1 <! ww_ram0_out [3] $end
$var wire 1 =! ww_ram0_out [2] $end
$var wire 1 >! ww_ram0_out [1] $end
$var wire 1 ?! ww_ram0_out [0] $end
$var wire 1 @! \ram0|altsyncram_component|auto_generated|ram_block1a0_PORTADATAIN_bus\ [17] $end
$var wire 1 A! \ram0|altsyncram_component|auto_generated|ram_block1a0_PORTADATAIN_bus\ [16] $end
$var wire 1 B! \ram0|altsyncram_component|auto_generated|ram_block1a0_PORTADATAIN_bus\ [15] $end
$var wire 1 C! \ram0|altsyncram_component|auto_generated|ram_block1a0_PORTADATAIN_bus\ [14] $end
$var wire 1 D! \ram0|altsyncram_component|auto_generated|ram_block1a0_PORTADATAIN_bus\ [13] $end
$var wire 1 E! \ram0|altsyncram_component|auto_generated|ram_block1a0_PORTADATAIN_bus\ [12] $end
$var wire 1 F! \ram0|altsyncram_component|auto_generated|ram_block1a0_PORTADATAIN_bus\ [11] $end
$var wire 1 G! \ram0|altsyncram_component|auto_generated|ram_block1a0_PORTADATAIN_bus\ [10] $end
$var wire 1 H! \ram0|altsyncram_component|auto_generated|ram_block1a0_PORTADATAIN_bus\ [9] $end
$var wire 1 I! \ram0|altsyncram_component|auto_generated|ram_block1a0_PORTADATAIN_bus\ [8] $end
$var wire 1 J! \ram0|altsyncram_component|auto_generated|ram_block1a0_PORTADATAIN_bus\ [7] $end
$var wire 1 K! \ram0|altsyncram_component|auto_generated|ram_block1a0_PORTADATAIN_bus\ [6] $end
$var wire 1 L! \ram0|altsyncram_component|auto_generated|ram_block1a0_PORTADATAIN_bus\ [5] $end
$var wire 1 M! \ram0|altsyncram_component|auto_generated|ram_block1a0_PORTADATAIN_bus\ [4] $end
$var wire 1 N! \ram0|altsyncram_component|auto_generated|ram_block1a0_PORTADATAIN_bus\ [3] $end
$var wire 1 O! \ram0|altsyncram_component|auto_generated|ram_block1a0_PORTADATAIN_bus\ [2] $end
$var wire 1 P! \ram0|altsyncram_component|auto_generated|ram_block1a0_PORTADATAIN_bus\ [1] $end
$var wire 1 Q! \ram0|altsyncram_component|auto_generated|ram_block1a0_PORTADATAIN_bus\ [0] $end
$var wire 1 R! \ram0|altsyncram_component|auto_generated|ram_block1a0_PORTAADDR_bus\ [7] $end
$var wire 1 S! \ram0|altsyncram_component|auto_generated|ram_block1a0_PORTAADDR_bus\ [6] $end
$var wire 1 T! \ram0|altsyncram_component|auto_generated|ram_block1a0_PORTAADDR_bus\ [5] $end
$var wire 1 U! \ram0|altsyncram_component|auto_generated|ram_block1a0_PORTAADDR_bus\ [4] $end
$var wire 1 V! \ram0|altsyncram_component|auto_generated|ram_block1a0_PORTAADDR_bus\ [3] $end
$var wire 1 W! \ram0|altsyncram_component|auto_generated|ram_block1a0_PORTAADDR_bus\ [2] $end
$var wire 1 X! \ram0|altsyncram_component|auto_generated|ram_block1a0_PORTAADDR_bus\ [1] $end
$var wire 1 Y! \ram0|altsyncram_component|auto_generated|ram_block1a0_PORTAADDR_bus\ [0] $end
$var wire 1 Z! \ram0|altsyncram_component|auto_generated|ram_block1a0_PORTADATAOUT_bus\ [17] $end
$var wire 1 [! \ram0|altsyncram_component|auto_generated|ram_block1a0_PORTADATAOUT_bus\ [16] $end
$var wire 1 \! \ram0|altsyncram_component|auto_generated|ram_block1a0_PORTADATAOUT_bus\ [15] $end
$var wire 1 ]! \ram0|altsyncram_component|auto_generated|ram_block1a0_PORTADATAOUT_bus\ [14] $end
$var wire 1 ^! \ram0|altsyncram_component|auto_generated|ram_block1a0_PORTADATAOUT_bus\ [13] $end
$var wire 1 _! \ram0|altsyncram_component|auto_generated|ram_block1a0_PORTADATAOUT_bus\ [12] $end
$var wire 1 `! \ram0|altsyncram_component|auto_generated|ram_block1a0_PORTADATAOUT_bus\ [11] $end
$var wire 1 a! \ram0|altsyncram_component|auto_generated|ram_block1a0_PORTADATAOUT_bus\ [10] $end
$var wire 1 b! \ram0|altsyncram_component|auto_generated|ram_block1a0_PORTADATAOUT_bus\ [9] $end
$var wire 1 c! \ram0|altsyncram_component|auto_generated|ram_block1a0_PORTADATAOUT_bus\ [8] $end
$var wire 1 d! \ram0|altsyncram_component|auto_generated|ram_block1a0_PORTADATAOUT_bus\ [7] $end
$var wire 1 e! \ram0|altsyncram_component|auto_generated|ram_block1a0_PORTADATAOUT_bus\ [6] $end
$var wire 1 f! \ram0|altsyncram_component|auto_generated|ram_block1a0_PORTADATAOUT_bus\ [5] $end
$var wire 1 g! \ram0|altsyncram_component|auto_generated|ram_block1a0_PORTADATAOUT_bus\ [4] $end
$var wire 1 h! \ram0|altsyncram_component|auto_generated|ram_block1a0_PORTADATAOUT_bus\ [3] $end
$var wire 1 i! \ram0|altsyncram_component|auto_generated|ram_block1a0_PORTADATAOUT_bus\ [2] $end
$var wire 1 j! \ram0|altsyncram_component|auto_generated|ram_block1a0_PORTADATAOUT_bus\ [1] $end
$var wire 1 k! \ram0|altsyncram_component|auto_generated|ram_block1a0_PORTADATAOUT_bus\ [0] $end
$var wire 1 l! \clk~inputclkctrl_INCLK_bus\ [3] $end
$var wire 1 m! \clk~inputclkctrl_INCLK_bus\ [2] $end
$var wire 1 n! \clk~inputclkctrl_INCLK_bus\ [1] $end
$var wire 1 o! \clk~inputclkctrl_INCLK_bus\ [0] $end
$var wire 1 p! \test_res~output_o\ $end
$var wire 1 q! \acc_out[7]~output_o\ $end
$var wire 1 r! \acc_out[6]~output_o\ $end
$var wire 1 s! \acc_out[5]~output_o\ $end
$var wire 1 t! \acc_out[4]~output_o\ $end
$var wire 1 u! \acc_out[3]~output_o\ $end
$var wire 1 v! \acc_out[2]~output_o\ $end
$var wire 1 w! \acc_out[1]~output_o\ $end
$var wire 1 x! \acc_out[0]~output_o\ $end
$var wire 1 y! \accD[7]~output_o\ $end
$var wire 1 z! \accD[6]~output_o\ $end
$var wire 1 {! \accD[5]~output_o\ $end
$var wire 1 |! \accD[4]~output_o\ $end
$var wire 1 }! \accD[3]~output_o\ $end
$var wire 1 ~! \accD[2]~output_o\ $end
$var wire 1 !" \accD[1]~output_o\ $end
$var wire 1 "" \accD[0]~output_o\ $end
$var wire 1 #" \alu_out[7]~output_o\ $end
$var wire 1 $" \alu_out[6]~output_o\ $end
$var wire 1 %" \alu_out[5]~output_o\ $end
$var wire 1 &" \alu_out[4]~output_o\ $end
$var wire 1 '" \alu_out[3]~output_o\ $end
$var wire 1 (" \alu_out[2]~output_o\ $end
$var wire 1 )" \alu_out[1]~output_o\ $end
$var wire 1 *" \alu_out[0]~output_o\ $end
$var wire 1 +" \ar_out[7]~output_o\ $end
$var wire 1 ," \ar_out[6]~output_o\ $end
$var wire 1 -" \ar_out[5]~output_o\ $end
$var wire 1 ." \ar_out[4]~output_o\ $end
$var wire 1 /" \ar_out[3]~output_o\ $end
$var wire 1 0" \ar_out[2]~output_o\ $end
$var wire 1 1" \ar_out[1]~output_o\ $end
$var wire 1 2" \ar_out[0]~output_o\ $end
$var wire 1 3" \dBus[7]~output_o\ $end
$var wire 1 4" \dBus[6]~output_o\ $end
$var wire 1 5" \dBus[5]~output_o\ $end
$var wire 1 6" \dBus[4]~output_o\ $end
$var wire 1 7" \dBus[3]~output_o\ $end
$var wire 1 8" \dBus[2]~output_o\ $end
$var wire 1 9" \dBus[1]~output_o\ $end
$var wire 1 :" \dBus[0]~output_o\ $end
$var wire 1 ;" \pc_out[7]~output_o\ $end
$var wire 1 <" \pc_out[6]~output_o\ $end
$var wire 1 =" \pc_out[5]~output_o\ $end
$var wire 1 >" \pc_out[4]~output_o\ $end
$var wire 1 ?" \pc_out[3]~output_o\ $end
$var wire 1 @" \pc_out[2]~output_o\ $end
$var wire 1 A" \pc_out[1]~output_o\ $end
$var wire 1 B" \pc_out[0]~output_o\ $end
$var wire 1 C" \ram0_out[7]~output_o\ $end
$var wire 1 D" \ram0_out[6]~output_o\ $end
$var wire 1 E" \ram0_out[5]~output_o\ $end
$var wire 1 F" \ram0_out[4]~output_o\ $end
$var wire 1 G" \ram0_out[3]~output_o\ $end
$var wire 1 H" \ram0_out[2]~output_o\ $end
$var wire 1 I" \ram0_out[1]~output_o\ $end
$var wire 1 J" \ram0_out[0]~output_o\ $end
$var wire 1 K" \clk~input_o\ $end
$var wire 1 L" \clk~inputclkctrl_outclk\ $end
$var wire 1 M" \~GND~combout\ $end
$var wire 1 N" \pc|pcout[1]~7_combout\ $end
$var wire 1 O" \inst|tmp[1]~1_combout\ $end
$var wire 1 P" \pc|pcout[1]~8\ $end
$var wire 1 Q" \pc|pcout[2]~9_combout\ $end
$var wire 1 R" \ar|addr_out[2]~feeder_combout\ $end
$var wire 1 S" \pc|pcout[2]~10\ $end
$var wire 1 T" \pc|pcout[3]~11_combout\ $end
$var wire 1 U" \ar|addr_out[3]~feeder_combout\ $end
$var wire 1 V" \pc|pcout[3]~12\ $end
$var wire 1 W" \pc|pcout[4]~13_combout\ $end
$var wire 1 X" \ar|addr_out[4]~feeder_combout\ $end
$var wire 1 Y" \pc|pcout[4]~14\ $end
$var wire 1 Z" \pc|pcout[5]~15_combout\ $end
$var wire 1 [" \pc|pcout[5]~16\ $end
$var wire 1 \" \pc|pcout[6]~17_combout\ $end
$var wire 1 ]" \ar|addr_out[6]~feeder_combout\ $end
$var wire 1 ^" \pc|pcout[6]~18\ $end
$var wire 1 _" \pc|pcout[7]~19_combout\ $end
$var wire 1 `" \ar|addr_out[7]~feeder_combout\ $end
$var wire 1 a" \dr|regq[6]~feeder_combout\ $end
$var wire 1 b" \ir|regq[6]~feeder_combout\ $end
$var wire 1 c" \dr|regq[5]~feeder_combout\ $end
$var wire 1 d" \ir|regq[5]~feeder_combout\ $end
$var wire 1 e" \inst9|en_ALU~2_combout\ $end
$var wire 1 f" \inst9|clr_ME~1_combout\ $end
$var wire 1 g" \inst9|clr_ME~q\ $end
$var wire 1 h" \inst|tmp[2]~feeder_combout\ $end
$var wire 1 i" \inst|tmp[0]~0_combout\ $end
$var wire 1 j" \inst9|en_PC~0_combout\ $end
$var wire 1 k" \inst9|o_SUB~0_combout\ $end
$var wire 1 l" \inst9|clr_ME~0_combout\ $end
$var wire 1 m" \inst9|clr_PC~q\ $end
$var wire 1 n" \ar|addr_out[1]~feeder_combout\ $end
$var wire 1 o" \dr|regq[7]~feeder_combout\ $end
$var wire 1 p" \ir|regq[7]~feeder_combout\ $end
$var wire 1 q" \inst9|en_PC~2_combout\ $end
$var wire 1 r" \inst9|en_ALU~3_combout\ $end
$var wire 1 s" \inst9|en_PC~3_combout\ $end
$var wire 1 t" \inst9|en_PC~q\ $end
$var wire 1 u" \pc|pcout[0]~21_combout\ $end
$var wire 1 v" \dr|regq[4]~feeder_combout\ $end
$var wire 1 w" \ir|regq[4]~feeder_combout\ $end
$var wire 1 x" \ir|Mux0~0_combout\ $end
$var wire 1 y" \inst9|test_RESULT~q\ $end
$var wire 1 z" \inst9|en_PC~1_combout\ $end
$var wire 1 {" \inst9|o_NOT~0_combout\ $end
$var wire 1 |" \inst9|o_ADD~0_combout\ $end
$var wire 1 }" \inst9|o_ADD~q\ $end
$var wire 1 ~" \inst9|o_SUB~1_combout\ $end
$var wire 1 !# \inst9|o_SUB~q\ $end
$var wire 1 "# \inst14|Add0~0_combout\ $end
$var wire 1 ## \inst9|o_OR~0_combout\ $end
$var wire 1 $# \inst9|o_OR~q\ $end
$var wire 1 %# \inst9|o_AND~0_combout\ $end
$var wire 1 &# \inst9|o_AND~q\ $end
$var wire 1 '# \inst9|o_NOT~1_combout\ $end
$var wire 1 (# \inst9|o_NOT~q\ $end
$var wire 1 )# \inst14|regq[7]~10_combout\ $end
$var wire 1 *# \inst14|regq~8_combout\ $end
$var wire 1 +# \inst14|regq~9_combout\ $end
$var wire 1 ,# \inst14|Add0~1_combout\ $end
$var wire 1 -# \inst14|Add0~2_combout\ $end
$var wire 1 .# \inst14|regq~13_combout\ $end
$var wire 1 /# \inst14|regq~15_combout\ $end
$var wire 1 0# \inst9|en_ALU~0_combout\ $end
$var wire 1 1# \inst9|en_ALU~1_combout\ $end
$var wire 1 2# \inst9|en_ALU~q\ $end
$var wire 1 3# \inst14|regq[0]~20_combout\ $end
$var wire 1 4# \inst14|regq[0]~19_combout\ $end
$var wire 1 5# \inst14|Add0~7_combout\ $end
$var wire 1 6# \dr|regq[2]~feeder_combout\ $end
$var wire 1 7# \inst14|Add0~9_combout\ $end
$var wire 1 8# \dr|regq[1]~feeder_combout\ $end
$var wire 1 9# \ir|regq[1]~feeder_combout\ $end
$var wire 1 :# \inst14|Add0~11_combout\ $end
$var wire 1 ;# \dr|regq[0]~feeder_combout\ $end
$var wire 1 <# \inst14|Add0~13_combout\ $end
$var wire 1 =# \inst14|Add0~15_cout\ $end
$var wire 1 ># \inst14|Add0~16_combout\ $end
$var wire 1 ?# \inst14|regq~21_combout\ $end
$var wire 1 @# \inst14|regq~22_combout\ $end
$var wire 1 A# \inst9|en_ALU_D~0_combout\ $end
$var wire 1 B# \inst9|en_ALU_D~q\ $end
$var wire 1 C# \inst9|o_NEG~0_combout\ $end
$var wire 1 D# \inst9|o_NEG~1_combout\ $end
$var wire 1 E# \inst9|o_NEG~q\ $end
$var wire 1 F# \inst14|regq[7]~12_combout\ $end
$var wire 1 G# \inst5|accReg~8_combout\ $end
$var wire 1 H# \inst9|en_dBus~0_combout\ $end
$var wire 1 I# \inst9|en_dBus~q\ $end
$var wire 1 J# \inst5|accReg[7]~1_combout\ $end
$var wire 1 K# \inst14|Add0~12_combout\ $end
$var wire 1 L# \inst14|Add0~17\ $end
$var wire 1 M# \inst14|Add0~18_combout\ $end
$var wire 1 N# \inst14|regq~23_combout\ $end
$var wire 1 O# \inst14|regq~24_combout\ $end
$var wire 1 P# \inst5|accReg~7_combout\ $end
$var wire 1 Q# \inst14|Add0~10_combout\ $end
$var wire 1 R# \inst14|Add0~19\ $end
$var wire 1 S# \inst14|Add0~20_combout\ $end
$var wire 1 T# \inst14|regq~25_combout\ $end
$var wire 1 U# \inst14|regq~26_combout\ $end
$var wire 1 V# \inst5|accReg~6_combout\ $end
$var wire 1 W# \inst14|Add0~8_combout\ $end
$var wire 1 X# \inst14|Add0~21\ $end
$var wire 1 Y# \inst14|Add0~22_combout\ $end
$var wire 1 Z# \inst14|regq~27_combout\ $end
$var wire 1 [# \inst14|regq~28_combout\ $end
$var wire 1 \# \inst5|accReg~5_combout\ $end
$var wire 1 ]# \inst14|Add0~6_combout\ $end
$var wire 1 ^# \inst14|Add0~23\ $end
$var wire 1 _# \inst14|Add0~24_combout\ $end
$var wire 1 `# \inst14|regq~18_combout\ $end
$var wire 1 a# \inst14|regq~17_combout\ $end
$var wire 1 b# \inst5|accReg~4_combout\ $end
$var wire 1 c# \inst14|Add0~5_combout\ $end
$var wire 1 d# \inst14|Add0~25\ $end
$var wire 1 e# \inst14|Add0~26_combout\ $end
$var wire 1 f# \inst14|regq~16_combout\ $end
$var wire 1 g# \inst5|accReg~3_combout\ $end
$var wire 1 h# \inst14|Add0~4_combout\ $end
$var wire 1 i# \inst14|Add0~27\ $end
$var wire 1 j# \inst14|Add0~28_combout\ $end
$var wire 1 k# \inst14|regq~14_combout\ $end
$var wire 1 l# \inst5|accReg~2_combout\ $end
$var wire 1 m# \inst14|Add0~3_combout\ $end
$var wire 1 n# \inst14|Add0~29\ $end
$var wire 1 o# \inst14|Add0~30_combout\ $end
$var wire 1 p# \inst14|regq~11_combout\ $end
$var wire 1 q# \inst5|accReg~0_combout\ $end
$var wire 1 r# \pc|pcout\ [7] $end
$var wire 1 s# \pc|pcout\ [6] $end
$var wire 1 t# \pc|pcout\ [5] $end
$var wire 1 u# \pc|pcout\ [4] $end
$var wire 1 v# \pc|pcout\ [3] $end
$var wire 1 w# \pc|pcout\ [2] $end
$var wire 1 x# \pc|pcout\ [1] $end
$var wire 1 y# \pc|pcout\ [0] $end
$var wire 1 z# \inst9|data_out\ [7] $end
$var wire 1 {# \inst9|data_out\ [6] $end
$var wire 1 |# \inst9|data_out\ [5] $end
$var wire 1 }# \inst9|data_out\ [4] $end
$var wire 1 ~# \inst9|data_out\ [3] $end
$var wire 1 !$ \inst9|data_out\ [2] $end
$var wire 1 "$ \inst9|data_out\ [1] $end
$var wire 1 #$ \inst9|data_out\ [0] $end
$var wire 1 $$ \ram0|altsyncram_component|auto_generated|q_a\ [7] $end
$var wire 1 %$ \ram0|altsyncram_component|auto_generated|q_a\ [6] $end
$var wire 1 &$ \ram0|altsyncram_component|auto_generated|q_a\ [5] $end
$var wire 1 '$ \ram0|altsyncram_component|auto_generated|q_a\ [4] $end
$var wire 1 ($ \ram0|altsyncram_component|auto_generated|q_a\ [3] $end
$var wire 1 )$ \ram0|altsyncram_component|auto_generated|q_a\ [2] $end
$var wire 1 *$ \ram0|altsyncram_component|auto_generated|q_a\ [1] $end
$var wire 1 +$ \ram0|altsyncram_component|auto_generated|q_a\ [0] $end
$var wire 1 ,$ \inst5|accReg\ [7] $end
$var wire 1 -$ \inst5|accReg\ [6] $end
$var wire 1 .$ \inst5|accReg\ [5] $end
$var wire 1 /$ \inst5|accReg\ [4] $end
$var wire 1 0$ \inst5|accReg\ [3] $end
$var wire 1 1$ \inst5|accReg\ [2] $end
$var wire 1 2$ \inst5|accReg\ [1] $end
$var wire 1 3$ \inst5|accReg\ [0] $end
$var wire 1 4$ \inst|tmp\ [7] $end
$var wire 1 5$ \inst|tmp\ [6] $end
$var wire 1 6$ \inst|tmp\ [5] $end
$var wire 1 7$ \inst|tmp\ [4] $end
$var wire 1 8$ \inst|tmp\ [3] $end
$var wire 1 9$ \inst|tmp\ [2] $end
$var wire 1 :$ \inst|tmp\ [1] $end
$var wire 1 ;$ \inst|tmp\ [0] $end
$var wire 1 <$ \inst14|regq\ [7] $end
$var wire 1 =$ \inst14|regq\ [6] $end
$var wire 1 >$ \inst14|regq\ [5] $end
$var wire 1 ?$ \inst14|regq\ [4] $end
$var wire 1 @$ \inst14|regq\ [3] $end
$var wire 1 A$ \inst14|regq\ [2] $end
$var wire 1 B$ \inst14|regq\ [1] $end
$var wire 1 C$ \inst14|regq\ [0] $end
$var wire 1 D$ \ir|regq\ [7] $end
$var wire 1 E$ \ir|regq\ [6] $end
$var wire 1 F$ \ir|regq\ [5] $end
$var wire 1 G$ \ir|regq\ [4] $end
$var wire 1 H$ \ir|regq\ [3] $end
$var wire 1 I$ \ir|regq\ [2] $end
$var wire 1 J$ \ir|regq\ [1] $end
$var wire 1 K$ \ir|regq\ [0] $end
$var wire 1 L$ \ar|addr_out\ [7] $end
$var wire 1 M$ \ar|addr_out\ [6] $end
$var wire 1 N$ \ar|addr_out\ [5] $end
$var wire 1 O$ \ar|addr_out\ [4] $end
$var wire 1 P$ \ar|addr_out\ [3] $end
$var wire 1 Q$ \ar|addr_out\ [2] $end
$var wire 1 R$ \ar|addr_out\ [1] $end
$var wire 1 S$ \ar|addr_out\ [0] $end
$var wire 1 T$ \dr|regq\ [7] $end
$var wire 1 U$ \dr|regq\ [6] $end
$var wire 1 V$ \dr|regq\ [5] $end
$var wire 1 W$ \dr|regq\ [4] $end
$var wire 1 X$ \dr|regq\ [3] $end
$var wire 1 Y$ \dr|regq\ [2] $end
$var wire 1 Z$ \dr|regq\ [1] $end
$var wire 1 [$ \dr|regq\ [0] $end
$var wire 1 \$ \inst9|ALT_INV_clr_PC~q\ $end
$var wire 1 ]$ \inst9|ALT_INV_clr_ME~q\ $end
$upscope $end
$upscope $end
$enddefinitions $end
#0
$dumpvars
0A
0Z
0[
1\
x]
1^
1_
1`
1a
1b
1c
0d
0e
0p!
0q!
0r!
0s!
0t!
0u!
0v!
0w!
0x!
0y!
0z!
0{!
0|!
0}!
0~!
0!"
0""
0#"
0$"
0%"
0&"
0'"
0("
0)"
0*"
0+"
0,"
0-"
0."
0/"
00"
01"
02"
03"
04"
05"
06"
07"
08"
09"
0:"
0;"
0<"
0="
0>"
0?"
0@"
0A"
0B"
0C"
0D"
0E"
0F"
0G"
0H"
0I"
0J"
0K"
0L"
0M"
0N"
1O"
0P"
0Q"
0R"
1S"
0T"
0U"
0V"
0W"
0X"
1Y"
0Z"
0["
0\"
0]"
1^"
0_"
0`"
0a"
0b"
0c"
0d"
1e"
0f"
0g"
0h"
1i"
1j"
0k"
0l"
0m"
0n"
0o"
0p"
0q"
0r"
0s"
0t"
0u"
0v"
0w"
0x"
0y"
0z"
0{"
0|"
0}"
0~"
0!#
0"#
0##
0$#
0%#
0&#
0'#
0(#
1)#
1*#
0+#
0,#
0-#
0.#
0/#
00#
01#
02#
13#
14#
05#
06#
07#
08#
09#
0:#
0;#
1<#
0=#
0>#
0?#
0@#
0A#
0B#
0C#
0D#
0E#
0F#
0G#
0H#
0I#
0J#
0K#
0L#
0M#
0N#
0O#
0P#
0Q#
1R#
0S#
0T#
0U#
0V#
0W#
0X#
0Y#
0Z#
0[#
0\#
0]#
1^#
0_#
0`#
0a#
0b#
0c#
0d#
0e#
0f#
0g#
0h#
1i#
0j#
0k#
0l#
0m#
0n#
0o#
0p#
0q#
1\$
1]$
0f
0g
0h
0i
0j
0k
0l
0m
0n
0o
0p
0q
0r
0s
0t
0u
0v
0w
0x
0y
0z
0{
0|
0}
0~
0!!
0"!
0#!
0$!
0%!
0&!
0'!
0(!
0)!
0*!
0+!
0,!
0-!
0.!
0/!
00!
01!
02!
03!
04!
05!
06!
07!
08!
09!
0:!
0;!
0<!
0=!
0>!
0?!
0Z!
0[!
0\!
0]!
0^!
0_!
0`!
0a!
0b!
0c!
0d!
0e!
0f!
0g!
0h!
0i!
0j!
0k!
0r#
0s#
0t#
0u#
0v#
0w#
0x#
0y#
xz#
x{#
x|#
x}#
0~#
0!$
0"$
0#$
0$$
0%$
0&$
0'$
0($
0)$
0*$
0+$
0,$
0-$
0.$
0/$
00$
01$
02$
03$
04$
05$
06$
07$
08$
09$
0:$
0;$
0<$
0=$
0>$
0?$
0@$
0A$
0B$
0C$
0D$
0E$
0F$
0G$
0H$
0I$
0J$
0K$
0L$
0M$
0N$
0O$
0P$
0Q$
0R$
0S$
0T$
0U$
0V$
0W$
0X$
0Y$
0Z$
0[$
1l!
1m!
1n!
0o!
0!
0"
0#
0$
0%
0&
0'
0(
0)
0*
0+
0,
0-
0.
0/
00
01
02
03
04
05
06
07
08
09
0:
0;
0<
0=
0>
0?
0@
0B
0C
0D
0E
0F
0G
0H
0I
0J
0K
0L
0M
0N
0O
0P
0Q
0R
0S
0T
0U
0V
0W
0X
0Y
0@!
0A!
0B!
0C!
0D!
0E!
0F!
0G!
0H!
0I!
0J!
0K!
0L!
0M!
0N!
0O!
0P!
0Q!
0R!
0S!
0T!
0U!
0V!
0W!
0X!
0Y!
$end
#5000
1A
1e
1K"
1o!
1L"
1:$
1;$
0O"
1r"
1z"
1h"
0j"
0r"
0z"
#10000
0A
0e
0K"
0o!
0L"
#15000
1A
1e
1K"
1o!
1L"
0:$
19$
0h"
1k!
1i!
1d!
1+$
1)$
1$$
1o"
16#
1;#
1C"
1H"
1J"
18!
1=!
1?!
1Y
1W
1R
#20000
0A
0e
0K"
0o!
0L"
#25000
1A
1e
1K"
1o!
1L"
09$
18$
1T$
1Y$
1[$
1p"
#30000
0A
0e
0K"
0o!
0L"
#35000
1A
1e
1K"
1o!
1L"
08$
17$
1D$
1I$
1K$
1x"
#40000
0A
0e
0K"
0o!
0L"
#45000
1A
1e
1K"
1o!
1L"
07$
16$
1y"
1!$
1#$
1G#
1V#
1j"
1z"
1H#
1:"
18"
1p!
1/!
1-!
1d
1I
1G
1Z
#50000
0A
0e
0K"
0o!
0L"
#55000
1A
1e
1K"
1o!
1L"
06$
15$
1I#
1J#
1r"
0H#
1s"
1f"
#60000
0A
0e
0K"
0o!
0L"
#65000
1A
1e
1K"
1o!
1L"
1g"
05$
14$
1t"
0I#
13$
11$
0]$
1W#
1K#
0J#
1u"
0i"
0s"
04$
0;$
0f"
1>#
1L#
1S#
1X#
1v!
1~!
1x!
1""
1O"
0r"
0z"
1i"
1Y#
0^#
1T#
1M#
0R#
1?#
1k
1s
1m
1u
1(
1&
10
1.
1@#
0S#
1N#
1U#
1_#
1d#
1Z#
1[#
1e#
0i#
1`#
1O#
0T#
0U#
1a#
1j#
1n#
1f#
1o#
1k#
1p#
#70000
0A
0e
0K"
0o!
0L"
#75000
1A
1e
1K"
1o!
1L"
0g"
0t"
1y#
1]$
1N"
1B"
17!
1Q
#80000
0A
0e
0K"
0o!
0L"
#85000
1A
1e
1K"
1o!
1L"
1:$
1;$
1S$
1Y!
0O"
1r"
1z"
1h"
0j"
0r"
0z"
12"
1'!
1@
#90000
0A
0e
0K"
0o!
0L"
#95000
1A
1e
1K"
1o!
1L"
0:$
19$
0h"
#100000
0A
0e
0K"
0o!
0L"
