simulation/qsim/8bit_model.msim.vcd
$comment
	File created using the following command:
		vcd file 8bit_model.msim.vcd -direction
$end
$date
	Fri Jul 13 20:19:05 2018
$end
$version
	ModelSim Version 10.5b
$end
$timescale
	1ps
$end

$scope module ar_vhd_vec_tst $end
$var wire 1 ! addr_in [7] $end
$var wire 1 " addr_in [6] $end
$var wire 1 # addr_in [5] $end
$var wire 1 $ addr_in [4] $end
$var wire 1 % addr_in [3] $end
$var wire 1 & addr_in [2] $end
$var wire 1 ' addr_in [1] $end
$var wire 1 ( addr_in [0] $end
$var wire 1 ) addr_out [7] $end
$var wire 1 * addr_out [6] $end
$var wire 1 + addr_out [5] $end
$var wire 1 , addr_out [4] $end
$var wire 1 - addr_out [3] $end
$var wire 1 . addr_out [2] $end
$var wire 1 / addr_out [1] $end
$var wire 1 0 addr_out [0] $end
$var wire 1 1 clk $end
$var wire 1 2 en_D $end

$scope module i1 $end
$var wire 1 3 gnd $end
$var wire 1 4 vcc $end
$var wire 1 5 unknown $end
$var wire 1 6 devoe $end
$var wire 1 7 devclrn $end
$var wire 1 8 devpor $end
$var wire 1 9 ww_devoe $end
$var wire 1 : ww_devclrn $end
$var wire 1 ; ww_devpor $end
$var wire 1 < ww_clk $end
$var wire 1 = ww_en_D $end
$var wire 1 > ww_addr_in [7] $end
$var wire 1 ? ww_addr_in [6] $end
$var wire 1 @ ww_addr_in [5] $end
$var wire 1 A ww_addr_in [4] $end
$var wire 1 B ww_addr_in [3] $end
$var wire 1 C ww_addr_in [2] $end
$var wire 1 D ww_addr_in [1] $end
$var wire 1 E ww_addr_in [0] $end
$var wire 1 F ww_addr_out [7] $end
$var wire 1 G ww_addr_out [6] $end
$var wire 1 H ww_addr_out [5] $end
$var wire 1 I ww_addr_out [4] $end
$var wire 1 J ww_addr_out [3] $end
$var wire 1 K ww_addr_out [2] $end
$var wire 1 L ww_addr_out [1] $end
$var wire 1 M ww_addr_out [0] $end
$var wire 1 N \clk~inputclkctrl_INCLK_bus\ [3] $end
$var wire 1 O \clk~inputclkctrl_INCLK_bus\ [2] $end
$var wire 1 P \clk~inputclkctrl_INCLK_bus\ [1] $end
$var wire 1 Q \clk~inputclkctrl_INCLK_bus\ [0] $end
$var wire 1 R \addr_out[0]~output_o\ $end
$var wire 1 S \addr_out[1]~output_o\ $end
$var wire 1 T \addr_out[2]~output_o\ $end
$var wire 1 U \addr_out[3]~output_o\ $end
$var wire 1 V \addr_out[4]~output_o\ $end
$var wire 1 W \addr_out[5]~output_o\ $end
$var wire 1 X \addr_out[6]~output_o\ $end
$var wire 1 Y \addr_out[7]~output_o\ $end
$var wire 1 Z \clk~input_o\ $end
$var wire 1 [ \clk~inputclkctrl_outclk\ $end
$var wire 1 \ \addr_in[0]~input_o\ $end
$var wire 1 ] \addr_out[0]~reg0feeder_combout\ $end
$var wire 1 ^ \en_D~input_o\ $end
$var wire 1 _ \addr_out[0]~reg0_q\ $end
$var wire 1 ` \addr_in[1]~input_o\ $end
$var wire 1 a \addr_out[1]~reg0_q\ $end
$var wire 1 b \addr_in[2]~input_o\ $end
$var wire 1 c \addr_out[2]~reg0feeder_combout\ $end
$var wire 1 d \addr_out[2]~reg0_q\ $end
$var wire 1 e \addr_in[3]~input_o\ $end
$var wire 1 f \addr_out[3]~reg0_q\ $end
$var wire 1 g \addr_in[4]~input_o\ $end
$var wire 1 h \addr_out[4]~reg0feeder_combout\ $end
$var wire 1 i \addr_out[4]~reg0_q\ $end
$var wire 1 j \addr_in[5]~input_o\ $end
$var wire 1 k \addr_out[5]~reg0feeder_combout\ $end
$var wire 1 l \addr_out[5]~reg0_q\ $end
$var wire 1 m \addr_in[6]~input_o\ $end
$var wire 1 n \addr_out[6]~reg0_q\ $end
$var wire 1 o \addr_in[7]~input_o\ $end
$var wire 1 p \addr_out[7]~reg0_q\ $end
$upscope $end
$upscope $end
$enddefinitions $end
#0
$dumpvars
01
02
03
14
x5
16
17
18
19
1:
1;
0<
0=
0R
0S
0T
0U
0V
0W
0X
0Y
0Z
0[
0\
0]
0^
0_
0`
0a
0b
0c
0d
0e
0f
0g
0h
0i
0j
0k
0l
0m
0n
0o
0p
0!
0"
0#
0$
0%
0&
0'
0(
0)
0*
0+
0,
0-
0.
0/
00
0>
0?
0@
0A
0B
0C
0D
0E
0F
0G
0H
0I
0J
0K
0L
0M
1N
1O
1P
0Q
$end
#10000
11
1<
1Z
1Q
1[
#20000
01
1(
0<
1E
1\
0Z
0Q
1]
0[
#30000
11
12
1<
1=
1^
1Z
1Q
1[
1_
1R
1M
10
#40000
01
0(
1'
0<
0E
1D
1`
0\
0Z
0Q
0]
0[
#50000
11
1<
1Z
1Q
1[
0_
1a
1S
0R
1L
0M
00
1/
#60000
01
1(
0<
1E
1\
0Z
0Q
1]
0[
#70000
11
1<
1Z
1Q
1[
1_
1R
1M
10
#80000
01
0(
0'
1&
0<
0E
0D
1C
1b
0`
0\
0Z
0Q
0]
1c
0[
#90000
11
1<
1Z
1Q
1[
0_
0a
1d
1T
0S
0R
1K
0L
0M
00
0/
1.
#100000
01
1(
0<
1E
1\
0Z
0Q
1]
0[
#110000
11
1<
1Z
1Q
1[
1_
1R
1M
10
#120000
01
0(
1'
0<
0E
1D
1`
0\
0Z
0Q
0]
0[
#130000
11
1<
1Z
1Q
1[
0_
1a
1S
0R
1L
0M
00
1/
#140000
01
1(
0<
1E
1\
0Z
0Q
1]
0[
#150000
11
1<
1Z
1Q
1[
1_
1R
1M
10
#160000
01
0(
0'
0&
1%
0<
0E
0D
0C
1B
1e
0b
0`
0\
0Z
0Q
0]
0c
0[
#170000
11
1<
1Z
1Q
1[
0_
0a
0d
1f
1U
0T
0S
0R
1J
0K
0L
0M
00
0/
0.
1-
#180000
01
1(
0<
1E
1\
0Z
0Q
1]
0[
#190000
11
1<
1Z
1Q
1[
1_
1R
1M
10
#200000
01
0(
1'
0<
0E
1D
1`
0\
0Z
0Q
0]
0[
#210000
11
1<
1Z
1Q
1[
0_
1a
1S
0R
1L
0M
00
1/
#220000
01
1(
0<
1E
1\
0Z
0Q
1]
0[
#230000
11
1<
1Z
1Q
1[
1_
1R
1M
10
#240000
01
0(
0'
1&
0<
0E
0D
1C
1b
0`
0\
0Z
0Q
0]
1c
0[
#250000
11
1<
1Z
1Q
1[
0_
0a
1d
1T
0S
0R
1K
0L
0M
00
0/
1.
#260000
01
1(
0<
1E
1\
0Z
0Q
1]
0[
#270000
11
1<
1Z
1Q
1[
1_
1R
1M
10
#280000
01
0(
1'
0<
0E
1D
1`
0\
0Z
0Q
0]
0[
#290000
11
1<
1Z
1Q
1[
0_
1a
1S
0R
1L
0M
00
1/
#300000
01
1(
0<
1E
1\
0Z
0Q
1]
0[
#310000
11
1<
1Z
1Q
1[
1_
1R
1M
10
#320000
01
0(
0'
0&
0%
1$
0<
0E
0D
0C
0B
1A
1g
0e
0b
0`
0\
0Z
0Q
0]
0c
1h
0[
#330000
11
1<
1Z
1Q
1[
0_
0a
0d
0f
1i
1V
0U
0T
0S
0R
1I
0J
0K
0L
0M
00
0/
0.
0-
1,
#340000
01
1(
0<
1E
1\
0Z
0Q
1]
0[
#350000
11
1<
1Z
1Q
1[
1_
1R
1M
10
#360000
01
0(
1'
0<
0E
1D
1`
0\
0Z
0Q
0]
0[
#370000
11
1<
1Z
1Q
1[
0_
1a
1S
0R
1L
0M
00
1/
#380000
01
1(
0<
1E
1\
0Z
0Q
1]
0[
#390000
11
1<
1Z
1Q
1[
1_
1R
1M
10
#400000
01
0(
0'
1&
0<
0E
0D
1C
1b
0`
0\
0Z
0Q
0]
1c
0[
#410000
11
1<
1Z
1Q
1[
0_
0a
1d
1T
0S
0R
1K
0L
0M
00
0/
1.
#420000
01
1(
0<
1E
1\
0Z
0Q
1]
0[
#430000
11
1<
1Z
1Q
1[
1_
1R
1M
10
#440000
01
0(
1'
0<
0E
1D
1`
0\
0Z
0Q
0]
0[
#450000
11
1<
1Z
1Q
1[
0_
1a
1S
0R
1L
0M
00
1/
#460000
01
1(
0<
1E
1\
0Z
0Q
1]
0[
#470000
11
1<
1Z
1Q
1[
1_
1R
1M
10
#480000
01
0(
0'
0&
1%
0<
0E
0D
0C
1B
1e
0b
0`
0\
0Z
0Q
0]
0c
0[
#490000
11
1<
1Z
1Q
1[
0_
0a
0d
1f
1U
0T
0S
0R
1J
0K
0L
0M
00
0/
0.
1-
#500000
01
1(
0<
1E
1\
0Z
0Q
1]
0[
#510000
11
1<
1Z
1Q
1[
1_
1R
1M
10
#520000
01
0(
1'
0<
0E
1D
1`
0\
0Z
0Q
0]
0[
#530000
11
1<
1Z
1Q
1[
0_
1a
1S
0R
1L
0M
00
1/
#540000
01
1(
0<
1E
1\
0Z
0Q
1]
0[
#550000
11
1<
1Z
1Q
1[
1_
1R
1M
10
#560000
01
0(
0'
1&
0<
0E
0D
1C
1b
0`
0\
0Z
0Q
0]
1c
0[
#570000
11
1<
1Z
1Q
1[
0_
0a
1d
1T
0S
0R
1K
0L
0M
00
0/
1.
#580000
01
1(
0<
1E
1\
0Z
0Q
1]
0[
#590000
11
1<
1Z
1Q
1[
1_
1R
1M
10
#600000
01
0(
1'
0<
0E
1D
1`
0\
0Z
0Q
0]
0[
#610000
11
1<
1Z
1Q
1[
0_
1a
1S
0R
1L
0M
00
1/
#620000
01
1(
0<
1E
1\
0Z
0Q
1]
0[
#630000
11
1<
1Z
1Q
1[
1_
1R
1M
10
#640000
01
0(
0'
0&
0%
0$
1#
0<
0E
0D
0C
0B
0A
1@
1j
0g
0e
0b
0`
0\
0Z
0Q
0]
0c
0h
1k
0[
#650000
11
1<
1Z
1Q
1[
0_
0a
0d
0f
0i
1l
1W
0V
0U
0T
0S
0R
1H
0I
0J
0K
0L
0M
00
0/
0.
0-
0,
1+
#660000
01
1(
0<
1E
1\
0Z
0Q
1]
0[
#670000
11
1<
1Z
1Q
1[
1_
1R
1M
10
#680000
01
0(
1'
0<
0E
1D
1`
0\
0Z
0Q
0]
0[
#690000
11
1<
1Z
1Q
1[
0_
1a
1S
0R
1L
0M
00
1/
#700000
01
1(
0<
1E
1\
0Z
0Q
1]
0[
#710000
11
1<
1Z
1Q
1[
1_
1R
1M
10
#720000
01
0(
0'
1&
0<
0E
0D
1C
1b
0`
0\
0Z
0Q
0]
1c
0[
#730000
11
1<
1Z
1Q
1[
0_
0a
1d
1T
0S
0R
1K
0L
0M
00
0/
1.
#740000
01
1(
0<
1E
1\
0Z
0Q
1]
0[
#750000
11
1<
1Z
1Q
1[
1_
1R
1M
10
#760000
01
0(
1'
0<
0E
1D
1`
0\
0Z
0Q
0]
0[
#770000
11
1<
1Z
1Q
1[
0_
1a
1S
0R
1L
0M
00
1/
#780000
01
1(
0<
1E
1\
0Z
0Q
1]
0[
#790000
11
1<
1Z
1Q
1[
1_
1R
1M
10
#800000
01
0(
0'
0&
1%
0<
0E
0D
0C
1B
1e
0b
0`
0\
0Z
0Q
0]
0c
0[
#810000
11
1<
1Z
1Q
1[
0_
0a
0d
1f
1U
0T
0S
0R
1J
0K
0L
0M
00
0/
0.
1-
#820000
01
1(
0<
1E
1\
0Z
0Q
1]
0[
#830000
11
1<
1Z
1Q
1[
1_
1R
1M
10
#840000
01
0(
1'
0<
0E
1D
1`
0\
0Z
0Q
0]
0[
#850000
11
1<
1Z
1Q
1[
0_
1a
1S
0R
1L
0M
00
1/
#860000
01
1(
0<
1E
1\
0Z
0Q
1]
0[
#870000
11
1<
1Z
1Q
1[
1_
1R
1M
10
#880000
01
0(
0'
1&
0<
0E
0D
1C
1b
0`
0\
0Z
0Q
0]
1c
0[
#890000
11
1<
1Z
1Q
1[
0_
0a
1d
1T
0S
0R
1K
0L
0M
00
0/
1.
#900000
01
1(
0<
1E
1\
0Z
0Q
1]
0[
#910000
11
1<
1Z
1Q
1[
1_
1R
1M
10
#920000
01
0(
1'
0<
0E
1D
1`
0\
0Z
0Q
0]
0[
#930000
11
1<
1Z
1Q
1[
0_
1a
1S
0R
1L
0M
00
1/
#940000
01
1(
0<
1E
1\
0Z
0Q
1]
0[
#950000
11
1<
1Z
1Q
1[
1_
1R
1M
10
#960000
01
0(
0'
0&
0%
1$
0<
0E
0D
0C
0B
1A
1g
0e
0b
0`
0\
0Z
0Q
0]
0c
1h
0[
#970000
11
1<
1Z
1Q
1[
0_
0a
0d
0f
1i
1V
0U
0T
0S
0R
1I
0J
0K
0L
0M
00
0/
0.
0-
1,
#980000
01
1(
0<
1E
1\
0Z
0Q
1]
0[
#990000
11
1<
1Z
1Q
1[
1_
1R
1M
10
