simulation/qsim/8bit_model.msim.vcd
$comment
	File created using the following command:
		vcd file 8bit_model.msim.vcd -direction
$end
$date
	Wed Jul 11 22:46:19 2018
$end
$version
	ModelSim Version 10.5b
$end
$timescale
	1ps
$end

$scope module eight_bit_model_vhd_vec_tst $end
$var wire 1 ! acc_out [7] $end
$var wire 1 " acc_out [6] $end
$var wire 1 # acc_out [5] $end
$var wire 1 $ acc_out [4] $end
$var wire 1 % acc_out [3] $end
$var wire 1 & acc_out [2] $end
$var wire 1 ' acc_out [1] $end
$var wire 1 ( acc_out [0] $end
$var wire 1 ) clk $end
$var wire 1 * en_LED $end
$var wire 1 + O_F $end
$var wire 1 , OA $end
$var wire 1 - OB $end
$var wire 1 . OC $end
$var wire 1 / OD $end
$var wire 1 0 OE $end
$var wire 1 1 OG $end

$scope module i1 $end
$var wire 1 2 gnd $end
$var wire 1 3 vcc $end
$var wire 1 4 unknown $end
$var wire 1 5 devoe $end
$var wire 1 6 devclrn $end
$var wire 1 7 devpor $end
$var wire 1 8 ww_devoe $end
$var wire 1 9 ww_devclrn $end
$var wire 1 : ww_devpor $end
$var wire 1 ; ww_OA $end
$var wire 1 < ww_clk $end
$var wire 1 = ww_OB $end
$var wire 1 > ww_OC $end
$var wire 1 ? ww_OD $end
$var wire 1 @ ww_OE $end
$var wire 1 A ww_OG $end
$var wire 1 B ww_O_F $end
$var wire 1 C ww_en_LED $end
$var wire 1 D ww_acc_out [7] $end
$var wire 1 E ww_acc_out [6] $end
$var wire 1 F ww_acc_out [5] $end
$var wire 1 G ww_acc_out [4] $end
$var wire 1 H ww_acc_out [3] $end
$var wire 1 I ww_acc_out [2] $end
$var wire 1 J ww_acc_out [1] $end
$var wire 1 K ww_acc_out [0] $end
$var wire 1 L \ram0|altsyncram_component|auto_generated|ram_block1a0_PORTADATAIN_bus\ [17] $end
$var wire 1 M \ram0|altsyncram_component|auto_generated|ram_block1a0_PORTADATAIN_bus\ [16] $end
$var wire 1 N \ram0|altsyncram_component|auto_generated|ram_block1a0_PORTADATAIN_bus\ [15] $end
$var wire 1 O \ram0|altsyncram_component|auto_generated|ram_block1a0_PORTADATAIN_bus\ [14] $end
$var wire 1 P \ram0|altsyncram_component|auto_generated|ram_block1a0_PORTADATAIN_bus\ [13] $end
$var wire 1 Q \ram0|altsyncram_component|auto_generated|ram_block1a0_PORTADATAIN_bus\ [12] $end
$var wire 1 R \ram0|altsyncram_component|auto_generated|ram_block1a0_PORTADATAIN_bus\ [11] $end
$var wire 1 S \ram0|altsyncram_component|auto_generated|ram_block1a0_PORTADATAIN_bus\ [10] $end
$var wire 1 T \ram0|altsyncram_component|auto_generated|ram_block1a0_PORTADATAIN_bus\ [9] $end
$var wire 1 U \ram0|altsyncram_component|auto_generated|ram_block1a0_PORTADATAIN_bus\ [8] $end
$var wire 1 V \ram0|altsyncram_component|auto_generated|ram_block1a0_PORTADATAIN_bus\ [7] $end
$var wire 1 W \ram0|altsyncram_component|auto_generated|ram_block1a0_PORTADATAIN_bus\ [6] $end
$var wire 1 X \ram0|altsyncram_component|auto_generated|ram_block1a0_PORTADATAIN_bus\ [5] $end
$var wire 1 Y \ram0|altsyncram_component|auto_generated|ram_block1a0_PORTADATAIN_bus\ [4] $end
$var wire 1 Z \ram0|altsyncram_component|auto_generated|ram_block1a0_PORTADATAIN_bus\ [3] $end
$var wire 1 [ \ram0|altsyncram_component|auto_generated|ram_block1a0_PORTADATAIN_bus\ [2] $end
$var wire 1 \ \ram0|altsyncram_component|auto_generated|ram_block1a0_PORTADATAIN_bus\ [1] $end
$var wire 1 ] \ram0|altsyncram_component|auto_generated|ram_block1a0_PORTADATAIN_bus\ [0] $end
$var wire 1 ^ \ram0|altsyncram_component|auto_generated|ram_block1a0_PORTAADDR_bus\ [7] $end
$var wire 1 _ \ram0|altsyncram_component|auto_generated|ram_block1a0_PORTAADDR_bus\ [6] $end
$var wire 1 ` \ram0|altsyncram_component|auto_generated|ram_block1a0_PORTAADDR_bus\ [5] $end
$var wire 1 a \ram0|altsyncram_component|auto_generated|ram_block1a0_PORTAADDR_bus\ [4] $end
$var wire 1 b \ram0|altsyncram_component|auto_generated|ram_block1a0_PORTAADDR_bus\ [3] $end
$var wire 1 c \ram0|altsyncram_component|auto_generated|ram_block1a0_PORTAADDR_bus\ [2] $end
$var wire 1 d \ram0|altsyncram_component|auto_generated|ram_block1a0_PORTAADDR_bus\ [1] $end
$var wire 1 e \ram0|altsyncram_component|auto_generated|ram_block1a0_PORTAADDR_bus\ [0] $end
$var wire 1 f \ram0|altsyncram_component|auto_generated|ram_block1a0_PORTADATAOUT_bus\ [17] $end
$var wire 1 g \ram0|altsyncram_component|auto_generated|ram_block1a0_PORTADATAOUT_bus\ [16] $end
$var wire 1 h \ram0|altsyncram_component|auto_generated|ram_block1a0_PORTADATAOUT_bus\ [15] $end
$var wire 1 i \ram0|altsyncram_component|auto_generated|ram_block1a0_PORTADATAOUT_bus\ [14] $end
$var wire 1 j \ram0|altsyncram_component|auto_generated|ram_block1a0_PORTADATAOUT_bus\ [13] $end
$var wire 1 k \ram0|altsyncram_component|auto_generated|ram_block1a0_PORTADATAOUT_bus\ [12] $end
$var wire 1 l \ram0|altsyncram_component|auto_generated|ram_block1a0_PORTADATAOUT_bus\ [11] $end
$var wire 1 m \ram0|altsyncram_component|auto_generated|ram_block1a0_PORTADATAOUT_bus\ [10] $end
$var wire 1 n \ram0|altsyncram_component|auto_generated|ram_block1a0_PORTADATAOUT_bus\ [9] $end
$var wire 1 o \ram0|altsyncram_component|auto_generated|ram_block1a0_PORTADATAOUT_bus\ [8] $end
$var wire 1 p \ram0|altsyncram_component|auto_generated|ram_block1a0_PORTADATAOUT_bus\ [7] $end
$var wire 1 q \ram0|altsyncram_component|auto_generated|ram_block1a0_PORTADATAOUT_bus\ [6] $end
$var wire 1 r \ram0|altsyncram_component|auto_generated|ram_block1a0_PORTADATAOUT_bus\ [5] $end
$var wire 1 s \ram0|altsyncram_component|auto_generated|ram_block1a0_PORTADATAOUT_bus\ [4] $end
$var wire 1 t \ram0|altsyncram_component|auto_generated|ram_block1a0_PORTADATAOUT_bus\ [3] $end
$var wire 1 u \ram0|altsyncram_component|auto_generated|ram_block1a0_PORTADATAOUT_bus\ [2] $end
$var wire 1 v \ram0|altsyncram_component|auto_generated|ram_block1a0_PORTADATAOUT_bus\ [1] $end
$var wire 1 w \ram0|altsyncram_component|auto_generated|ram_block1a0_PORTADATAOUT_bus\ [0] $end
$var wire 1 x \clk~inputclkctrl_INCLK_bus\ [3] $end
$var wire 1 y \clk~inputclkctrl_INCLK_bus\ [2] $end
$var wire 1 z \clk~inputclkctrl_INCLK_bus\ [1] $end
$var wire 1 { \clk~inputclkctrl_INCLK_bus\ [0] $end
$var wire 1 | \OA~output_o\ $end
$var wire 1 } \OB~output_o\ $end
$var wire 1 ~ \OC~output_o\ $end
$var wire 1 !! \OD~output_o\ $end
$var wire 1 "! \OE~output_o\ $end
$var wire 1 #! \OG~output_o\ $end
$var wire 1 $! \O_F~output_o\ $end
$var wire 1 %! \en_LED~output_o\ $end
$var wire 1 &! \acc_out[7]~output_o\ $end
$var wire 1 '! \acc_out[6]~output_o\ $end
$var wire 1 (! \acc_out[5]~output_o\ $end
$var wire 1 )! \acc_out[4]~output_o\ $end
$var wire 1 *! \acc_out[3]~output_o\ $end
$var wire 1 +! \acc_out[2]~output_o\ $end
$var wire 1 ,! \acc_out[1]~output_o\ $end
$var wire 1 -! \acc_out[0]~output_o\ $end
$var wire 1 .! \clk~input_o\ $end
$var wire 1 /! \clk~inputclkctrl_outclk\ $end
$var wire 1 0! \~GND~combout\ $end
$var wire 1 1! \inst|tmp[1]~1_combout\ $end
$var wire 1 2! \pc|pcout[1]~8_combout\ $end
$var wire 1 3! \inst6|o_SUB~0_combout\ $end
$var wire 1 4! \inst6|clr_PC~0_combout\ $end
$var wire 1 5! \inst6|clr_PC~q\ $end
$var wire 1 6! \ar|addr_out[1]~feeder_combout\ $end
$var wire 1 7! \pc|pcout[1]~9\ $end
$var wire 1 8! \pc|pcout[2]~10_combout\ $end
$var wire 1 9! \ar|addr_out[2]~feeder_combout\ $end
$var wire 1 :! \pc|pcout[2]~11\ $end
$var wire 1 ;! \pc|pcout[3]~12_combout\ $end
$var wire 1 <! \ar|addr_out[3]~feeder_combout\ $end
$var wire 1 =! \pc|pcout[3]~13\ $end
$var wire 1 >! \pc|pcout[4]~14_combout\ $end
$var wire 1 ?! \ar|addr_out[4]~feeder_combout\ $end
$var wire 1 @! \pc|pcout[4]~15\ $end
$var wire 1 A! \pc|pcout[5]~16_combout\ $end
$var wire 1 B! \ar|addr_out[5]~feeder_combout\ $end
$var wire 1 C! \pc|pcout[5]~17\ $end
$var wire 1 D! \pc|pcout[6]~18_combout\ $end
$var wire 1 E! \ar|addr_out[6]~feeder_combout\ $end
$var wire 1 F! \pc|pcout[6]~19\ $end
$var wire 1 G! \pc|pcout[7]~20_combout\ $end
$var wire 1 H! \ar|addr_out[7]~feeder_combout\ $end
$var wire 1 I! \dr|regq[6]~feeder_combout\ $end
$var wire 1 J! \dr|regq[5]~feeder_combout\ $end
$var wire 1 K! \dr|regq[4]~feeder_combout\ $end
$var wire 1 L! \dr|regq[7]~feeder_combout\ $end
$var wire 1 M! \inst1|Mux7~8_combout\ $end
$var wire 1 N! \inst6|en_ALU_D~0_combout\ $end
$var wire 1 O! \inst1|Mux7~0_combout\ $end
$var wire 1 P! \inst6|en_PC~3_combout\ $end
$var wire 1 Q! \inst6|o_SUB~3_combout\ $end
$var wire 1 R! \inst6|clr_ME~0_combout\ $end
$var wire 1 S! \inst6|clr_ME~q\ $end
$var wire 1 T! \inst|tmp[2]~feeder_combout\ $end
$var wire 1 U! \inst|tmp[4]~feeder_combout\ $end
$var wire 1 V! \inst|tmp[5]~feeder_combout\ $end
$var wire 1 W! \inst|tmp[0]~0_combout\ $end
$var wire 1 X! \inst6|en_PC~4_combout\ $end
$var wire 1 Y! \inst6|en_PC~q\ $end
$var wire 1 Z! \pc|pcout[0]~7_combout\ $end
$var wire 1 [! \dr|regq[1]~feeder_combout\ $end
$var wire 1 \! \inst1|regq[1]~feeder_combout\ $end
$var wire 1 ]! \inst1|Mux7~4_combout\ $end
$var wire 1 ^! \inst6|o_AND~0_combout\ $end
$var wire 1 _! \inst6|o_AND~q\ $end
$var wire 1 `! \inst3|regq~34_combout\ $end
$var wire 1 a! \dr|regq[0]~feeder_combout\ $end
$var wire 1 b! \inst3|regq~24_combout\ $end
$var wire 1 c! \inst1|Mux7~3_combout\ $end
$var wire 1 d! \inst6|o_NOT~0_combout\ $end
$var wire 1 e! \inst6|o_NOT~q\ $end
$var wire 1 f! \inst1|Mux7~1_combout\ $end
$var wire 1 g! \inst6|o_OR~0_combout\ $end
$var wire 1 h! \inst6|o_OR~q\ $end
$var wire 1 i! \inst3|regq[1]~21_combout\ $end
$var wire 1 j! \inst1|Mux7~2_combout\ $end
$var wire 1 k! \inst6|o_SHL~0_combout\ $end
$var wire 1 l! \inst6|o_SHL~1_combout\ $end
$var wire 1 m! \inst6|o_SHL~q\ $end
$var wire 1 n! \inst3|regq[1]~20_combout\ $end
$var wire 1 o! \inst3|regq~22_combout\ $end
$var wire 1 p! \inst3|ShiftLeft0~0_combout\ $end
$var wire 1 q! \dr|regq[3]~feeder_combout\ $end
$var wire 1 r! \inst1|regq[3]~feeder_combout\ $end
$var wire 1 s! \dr|regq[2]~feeder_combout\ $end
$var wire 1 t! \inst1|regq[2]~feeder_combout\ $end
$var wire 1 u! \inst3|regq[1]~78_combout\ $end
$var wire 1 v! \inst6|en_PC~2_combout\ $end
$var wire 1 w! \inst6|en_ALU~0_combout\ $end
$var wire 1 x! \inst6|en_ALU~q\ $end
$var wire 1 y! \inst1|Mux7~5_combout\ $end
$var wire 1 z! \inst6|o_SUB~1_combout\ $end
$var wire 1 {! \inst6|o_SUB~q\ $end
$var wire 1 |! \inst6|o_SUB~2_combout\ $end
$var wire 1 }! \inst6|o_ADD~0_combout\ $end
$var wire 1 ~! \inst6|o_ADD~1_combout\ $end
$var wire 1 !" \inst6|o_ADD~q\ $end
$var wire 1 "" \inst3|Add0~16_combout\ $end
$var wire 1 #" \inst3|Add0~15_combout\ $end
$var wire 1 $" \inst1|Mux7~6_combout\ $end
$var wire 1 %" \inst6|o_NEG~0_combout\ $end
$var wire 1 &" \inst6|o_NEG~q\ $end
$var wire 1 '" \inst3|Add0~6_combout\ $end
$var wire 1 (" \inst3|regq[3]~25_combout\ $end
$var wire 1 )" \inst3|Add0~12_combout\ $end
$var wire 1 *" \inst3|Add0~7_combout\ $end
$var wire 1 +" \inst3|Add0~8_combout\ $end
$var wire 1 ," \inst3|Add0~1_combout\ $end
$var wire 1 -" \inst3|Add0~0_combout\ $end
$var wire 1 ." \inst3|Add0~3_cout\ $end
$var wire 1 /" \inst3|Add0~5\ $end
$var wire 1 0" \inst3|Add0~10\ $end
$var wire 1 1" \inst3|Add0~13_combout\ $end
$var wire 1 2" \inst3|regq[3]~35_combout\ $end
$var wire 1 3" \inst3|regq[3]~27_combout\ $end
$var wire 1 4" \inst3|regq[3]~36_combout\ $end
$var wire 1 5" \inst3|regq[4]~57_combout\ $end
$var wire 1 6" \inst3|ShiftLeft0~8_combout\ $end
$var wire 1 7" \inst3|regq[6]~50_combout\ $end
$var wire 1 8" \inst3|ShiftLeft0~2_combout\ $end
$var wire 1 9" \inst3|regq[6]~53_combout\ $end
$var wire 1 :" \inst3|regq[6]~52_combout\ $end
$var wire 1 ;" \inst3|regq~19_combout\ $end
$var wire 1 <" \inst3|regq[6]~56_combout\ $end
$var wire 1 =" \inst3|regq[6]~58_combout\ $end
$var wire 1 >" \inst3|ShiftLeft0~5_combout\ $end
$var wire 1 ?" \inst3|regq~80_combout\ $end
$var wire 1 @" \inst3|ShiftLeft0~3_combout\ $end
$var wire 1 A" \inst3|regq~63_combout\ $end
$var wire 1 B" \inst3|regq~64_combout\ $end
$var wire 1 C" \inst3|Add0~19_combout\ $end
$var wire 1 D" \inst3|Add0~21_combout\ $end
$var wire 1 E" \inst3|Add0~22_combout\ $end
$var wire 1 F" \inst3|Add0~23_combout\ $end
$var wire 1 G" \inst3|Add0~18\ $end
$var wire 1 H" \inst3|Add0~25\ $end
$var wire 1 I" \inst3|Add0~27\ $end
$var wire 1 J" \inst3|Add0~28_combout\ $end
$var wire 1 K" \inst3|regq[6]~60_combout\ $end
$var wire 1 L" \inst3|regq[6]~59_combout\ $end
$var wire 1 M" \inst3|regq~65_combout\ $end
$var wire 1 N" \inst3|regq~66_combout\ $end
$var wire 1 O" \inst1|Mux7~7_combout\ $end
$var wire 1 P" \inst6|o_SHR~0_combout\ $end
$var wire 1 Q" \inst6|o_SHR~q\ $end
$var wire 1 R" \inst3|regq[3]~26_combout\ $end
$var wire 1 S" \inst6|en_ALU_D~1_combout\ $end
$var wire 1 T" \inst6|en_ALU_D~q\ $end
$var wire 1 U" \inst3|regq[3]~28_combout\ $end
$var wire 1 V" \inst5|accReg~6_combout\ $end
$var wire 1 W" \inst6|en_dBus~0_combout\ $end
$var wire 1 X" \inst6|en_dBus~q\ $end
$var wire 1 Y" \inst5|accReg[3]~1_combout\ $end
$var wire 1 Z" \inst3|ShiftRight0~5_combout\ $end
$var wire 1 [" \inst3|ShiftRight0~6_combout\ $end
$var wire 1 \" \inst3|regq~81_combout\ $end
$var wire 1 ]" \inst3|regq~67_combout\ $end
$var wire 1 ^" \inst3|regq~68_combout\ $end
$var wire 1 _" \inst3|regq[4]~70_combout\ $end
$var wire 1 `" \inst3|regq[4]~69_combout\ $end
$var wire 1 a" \inst3|Add0~26_combout\ $end
$var wire 1 b" \inst3|regq~71_combout\ $end
$var wire 1 c" \inst3|regq~72_combout\ $end
$var wire 1 d" \inst5|accReg~7_combout\ $end
$var wire 1 e" \inst3|ShiftLeft0~7_combout\ $end
$var wire 1 f" \inst3|regq~51_combout\ $end
$var wire 1 g" \inst3|ShiftLeft0~4_combout\ $end
$var wire 1 h" \inst3|ShiftLeft0~6_combout\ $end
$var wire 1 i" \inst3|regq~54_combout\ $end
$var wire 1 j" \inst3|regq~55_combout\ $end
$var wire 1 k" \inst3|Add0~20_combout\ $end
$var wire 1 l" \inst3|Add0~29\ $end
$var wire 1 m" \inst3|Add0~30_combout\ $end
$var wire 1 n" \inst3|regq~61_combout\ $end
$var wire 1 o" \inst3|regq~62_combout\ $end
$var wire 1 p" \inst5|accReg~5_combout\ $end
$var wire 1 q" \inst3|ShiftRight0~1_combout\ $end
$var wire 1 r" \inst3|regq~73_combout\ $end
$var wire 1 s" \inst3|regq~74_combout\ $end
$var wire 1 t" \inst3|regq~75_combout\ $end
$var wire 1 u" \inst3|Add0~24_combout\ $end
$var wire 1 v" \inst3|regq~76_combout\ $end
$var wire 1 w" \inst3|regq~77_combout\ $end
$var wire 1 x" \inst5|accReg~8_combout\ $end
$var wire 1 y" \inst3|ShiftRight0~2_combout\ $end
$var wire 1 z" \inst3|regq[3]~38_combout\ $end
$var wire 1 {" \inst3|regq~37_combout\ $end
$var wire 1 |" \inst3|regq[3]~39_combout\ $end
$var wire 1 }" \inst3|regq~40_combout\ $end
$var wire 1 ~" \inst3|regq~41_combout\ $end
$var wire 1 !# \inst3|regq~79_combout\ $end
$var wire 1 "# \inst3|regq~42_combout\ $end
$var wire 1 ## \inst3|regq~43_combout\ $end
$var wire 1 $# \inst5|accReg~3_combout\ $end
$var wire 1 %# \inst3|Add0~11_combout\ $end
$var wire 1 &# \inst3|Add0~14\ $end
$var wire 1 '# \inst3|Add0~17_combout\ $end
$var wire 1 (# \inst3|ShiftRight0~4_combout\ $end
$var wire 1 )# \inst3|regq~44_combout\ $end
$var wire 1 *# \inst3|regq~45_combout\ $end
$var wire 1 +# \inst3|regq~46_combout\ $end
$var wire 1 ,# \inst3|regq~47_combout\ $end
$var wire 1 -# \inst3|regq~48_combout\ $end
$var wire 1 .# \inst3|regq~49_combout\ $end
$var wire 1 /# \inst5|accReg~4_combout\ $end
$var wire 1 0# \inst3|ShiftRight0~0_combout\ $end
$var wire 1 1# \inst3|regq[1]~14_combout\ $end
$var wire 1 2# \inst3|regq[1]~15_combout\ $end
$var wire 1 3# \inst3|regq~16_combout\ $end
$var wire 1 4# \inst3|ShiftRight0~3_combout\ $end
$var wire 1 5# \inst3|regq~17_combout\ $end
$var wire 1 6# \inst3|regq~18_combout\ $end
$var wire 1 7# \inst3|regq~23_combout\ $end
$var wire 1 8# \inst3|regq[0]~0_combout\ $end
$var wire 1 9# \inst3|Add0~4_combout\ $end
$var wire 1 :# \inst5|accReg~0_combout\ $end
$var wire 1 ;# \inst3|ShiftLeft0~1_combout\ $end
$var wire 1 <# \inst3|regq~32_combout\ $end
$var wire 1 =# \inst3|regq~29_combout\ $end
$var wire 1 ># \inst3|regq~30_combout\ $end
$var wire 1 ?# \inst3|regq~31_combout\ $end
$var wire 1 @# \inst3|regq~33_combout\ $end
$var wire 1 A# \inst3|regq[1]~1_combout\ $end
$var wire 1 B# \inst3|Add0~9_combout\ $end
$var wire 1 C# \inst5|accReg~2_combout\ $end
$var wire 1 D# \inst8|Mux0~0_combout\ $end
$var wire 1 E# \inst8|Mux1~0_combout\ $end
$var wire 1 F# \inst8|Mux2~0_combout\ $end
$var wire 1 G# \inst8|Mux3~0_combout\ $end
$var wire 1 H# \inst8|Mux4~0_combout\ $end
$var wire 1 I# \inst8|Mux6~0_combout\ $end
$var wire 1 J# \inst8|Mux5~0_combout\ $end
$var wire 1 K# \dr|regq\ [7] $end
$var wire 1 L# \dr|regq\ [6] $end
$var wire 1 M# \dr|regq\ [5] $end
$var wire 1 N# \dr|regq\ [4] $end
$var wire 1 O# \dr|regq\ [3] $end
$var wire 1 P# \dr|regq\ [2] $end
$var wire 1 Q# \dr|regq\ [1] $end
$var wire 1 R# \dr|regq\ [0] $end
$var wire 1 S# \inst3|regq\ [7] $end
$var wire 1 T# \inst3|regq\ [6] $end
$var wire 1 U# \inst3|regq\ [5] $end
$var wire 1 V# \inst3|regq\ [4] $end
$var wire 1 W# \inst3|regq\ [3] $end
$var wire 1 X# \inst3|regq\ [2] $end
$var wire 1 Y# \inst3|regq\ [1] $end
$var wire 1 Z# \inst3|regq\ [0] $end
$var wire 1 [# \ram0|altsyncram_component|auto_generated|q_a\ [7] $end
$var wire 1 \# \ram0|altsyncram_component|auto_generated|q_a\ [6] $end
$var wire 1 ]# \ram0|altsyncram_component|auto_generated|q_a\ [5] $end
$var wire 1 ^# \ram0|altsyncram_component|auto_generated|q_a\ [4] $end
$var wire 1 _# \ram0|altsyncram_component|auto_generated|q_a\ [3] $end
$var wire 1 `# \ram0|altsyncram_component|auto_generated|q_a\ [2] $end
$var wire 1 a# \ram0|altsyncram_component|auto_generated|q_a\ [1] $end
$var wire 1 b# \ram0|altsyncram_component|auto_generated|q_a\ [0] $end
$var wire 1 c# \pc|pcout\ [7] $end
$var wire 1 d# \pc|pcout\ [6] $end
$var wire 1 e# \pc|pcout\ [5] $end
$var wire 1 f# \pc|pcout\ [4] $end
$var wire 1 g# \pc|pcout\ [3] $end
$var wire 1 h# \pc|pcout\ [2] $end
$var wire 1 i# \pc|pcout\ [1] $end
$var wire 1 j# \pc|pcout\ [0] $end
$var wire 1 k# \inst6|data_out\ [7] $end
$var wire 1 l# \inst6|data_out\ [6] $end
$var wire 1 m# \inst6|data_out\ [5] $end
$var wire 1 n# \inst6|data_out\ [4] $end
$var wire 1 o# \inst6|data_out\ [3] $end
$var wire 1 p# \inst6|data_out\ [2] $end
$var wire 1 q# \inst6|data_out\ [1] $end
$var wire 1 r# \inst6|data_out\ [0] $end
$var wire 1 s# \inst5|accReg\ [7] $end
$var wire 1 t# \inst5|accReg\ [6] $end
$var wire 1 u# \inst5|accReg\ [5] $end
$var wire 1 v# \inst5|accReg\ [4] $end
$var wire 1 w# \inst5|accReg\ [3] $end
$var wire 1 x# \inst5|accReg\ [2] $end
$var wire 1 y# \inst5|accReg\ [1] $end
$var wire 1 z# \inst5|accReg\ [0] $end
$var wire 1 {# \inst1|regq\ [7] $end
$var wire 1 |# \inst1|regq\ [6] $end
$var wire 1 }# \inst1|regq\ [5] $end
$var wire 1 ~# \inst1|regq\ [4] $end
$var wire 1 !$ \inst1|regq\ [3] $end
$var wire 1 "$ \inst1|regq\ [2] $end
$var wire 1 #$ \inst1|regq\ [1] $end
$var wire 1 $$ \inst1|regq\ [0] $end
$var wire 1 %$ \inst|tmp\ [7] $end
$var wire 1 &$ \inst|tmp\ [6] $end
$var wire 1 '$ \inst|tmp\ [5] $end
$var wire 1 ($ \inst|tmp\ [4] $end
$var wire 1 )$ \inst|tmp\ [3] $end
$var wire 1 *$ \inst|tmp\ [2] $end
$var wire 1 +$ \inst|tmp\ [1] $end
$var wire 1 ,$ \inst|tmp\ [0] $end
$var wire 1 -$ \ar|addr_out\ [7] $end
$var wire 1 .$ \ar|addr_out\ [6] $end
$var wire 1 /$ \ar|addr_out\ [5] $end
$var wire 1 0$ \ar|addr_out\ [4] $end
$var wire 1 1$ \ar|addr_out\ [3] $end
$var wire 1 2$ \ar|addr_out\ [2] $end
$var wire 1 3$ \ar|addr_out\ [1] $end
$var wire 1 4$ \ar|addr_out\ [0] $end
$var wire 1 5$ \inst8|ALT_INV_Mux6~0_combout\ $end
$var wire 1 6$ \inst6|ALT_INV_clr_PC~q\ $end
$var wire 1 7$ \inst6|ALT_INV_clr_ME~q\ $end
$upscope $end
$upscope $end
$enddefinitions $end
#0
$dumpvars
0)
0*
0+
0,
0-
0.
0/
00
11
02
13
x4
15
16
17
18
19
1:
0;
0<
0=
0>
0?
0@
1A
0B
0C
0|
0}
0~
0!!
0"!
1#!
0$!
0%!
0&!
0'!
0(!
0)!
0*!
0+!
0,!
0-!
0.!
0/!
00!
11!
02!
13!
04!
05!
06!
07!
08!
09!
1:!
0;!
0<!
0=!
0>!
0?!
1@!
0A!
0B!
0C!
0D!
0E!
1F!
0G!
0H!
0I!
0J!
0K!
0L!
0M!
0N!
0O!
0P!
0Q!
0R!
0S!
0T!
0U!
0V!
1W!
0X!
0Y!
0Z!
0[!
0\!
0]!
0^!
0_!
0`!
0a!
0b!
0c!
0d!
0e!
0f!
0g!
0h!
0i!
0j!
0k!
0l!
0m!
0n!
1o!
0p!
0q!
0r!
0s!
0t!
1u!
0v!
0w!
0x!
0y!
0z!
0{!
0|!
0}!
0~!
0!"
1""
0#"
0$"
0%"
0&"
0'"
0("
1)"
0*"
1+"
1,"
1-"
0."
0/"
10"
01"
02"
13"
04"
15"
06"
17"
08"
09"
1:"
1;"
0<"
0="
0>"
0?"
0@"
0A"
0B"
0C"
0D"
0E"
0F"
1G"
0H"
1I"
0J"
0K"
0L"
0M"
0N"
0O"
0P"
0Q"
0R"
0S"
0T"
0U"
0V"
0W"
0X"
0Y"
0Z"
0["
0\"
0]"
0^"
0_"
0`"
0a"
0b"
0c"
0d"
0e"
0f"
0g"
0h"
0i"
0j"
0k"
0l"
0m"
0n"
0o"
0p"
0q"
0r"
0s"
0t"
0u"
0v"
0w"
0x"
0y"
0z"
0{"
0|"
1}"
0~"
0!#
0"#
0##
0$#
0%#
0&#
0'#
0(#
0)#
1*#
0+#
0,#
0-#
0.#
0/#
00#
01#
02#
03#
04#
05#
06#
07#
08#
09#
0:#
0;#
1<#
0=#
0>#
0?#
0@#
0A#
0B#
0C#
0D#
0E#
0F#
0G#
0H#
0I#
0J#
15$
16$
17$
0D
0E
0F
0G
0H
0I
0J
0K
0f
0g
0h
0i
0j
0k
0l
0m
0n
0o
0p
0q
0r
0s
0t
0u
0v
0w
0K#
0L#
0M#
0N#
0O#
0P#
0Q#
0R#
0S#
0T#
0U#
0V#
0W#
0X#
0Y#
0Z#
0[#
0\#
0]#
0^#
0_#
0`#
0a#
0b#
0c#
0d#
0e#
0f#
0g#
0h#
0i#
0j#
xk#
xl#
xm#
xn#
0o#
0p#
0q#
0r#
0s#
0t#
0u#
0v#
0w#
0x#
0y#
0z#
0{#
0|#
0}#
0~#
0!$
0"$
0#$
0$$
0%$
0&$
0'$
0($
0)$
0*$
0+$
0,$
0-$
0.$
0/$
00$
01$
02$
03$
04$
1x
1y
1z
0{
0!
0"
0#
0$
0%
0&
0'
0(
0L
0M
0N
0O
0P
0Q
0R
0S
0T
0U
0V
0W
0X
0Y
0Z
0[
0\
0]
0^
0_
0`
0a
0b
0c
0d
0e
$end
#5000
1)
1<
1.!
1{
1/!
1+$
1,$
01!
1Q!
1v!
03!
1T!
0Q!
0v!
#10000
0)
0<
0.!
0{
0/!
#15000
1)
1<
1.!
1{
1/!
0+$
1*$
0T!
1w
1u
1p
1b#
1`#
1[#
1L!
1s!
1a!
#20000
0)
0<
0.!
0{
0/!
#25000
1)
1<
1.!
1{
1/!
1K#
0*$
1)$
1R#
1P#
1t!
1U!
#30000
0)
0<
0.!
0{
0/!
#35000
1)
1<
1.!
1{
1/!
1{#
0)$
1($
1$$
1"$
1V!
0U!
1O!
#40000
0)
0<
0.!
0{
0/!
#45000
1)
1<
1.!
1{
1/!
0($
1'$
1r#
1p#
14"
0;"
1z"
1$#
11#
12#
1:#
13!
0V!
1Q!
1k!
1|!
1W"
13#
1=#
0}"
0*#
1~"
1+#
1,#
1!#
0+#
0~"
0!#
0,#
1"#
1-#
1.#
1##
0-#
0"#
0##
0.#
#50000
0)
0<
0.!
0{
0/!
#55000
1)
1<
1.!
1{
1/!
0'$
1&$
1X"
1Y"
1P!
1v!
0|!
0W"
1R!
1X!
#60000
0)
0<
0.!
0{
0/!
#65000
1)
1<
1.!
1{
1/!
1S!
0&$
1%$
1Y!
0X"
1x#
1z#
07$
1b!
0,"
1;#
0)"
1>"
1E#
1H#
1I#
0Y"
1Z!
0W!
0P!
0k!
0%$
0,$
05$
0R!
0X!
1h"
11"
1&#
19#
1/"
1-!
1+!
11!
0Q!
0v!
1W!
1B#
00"
1'#
0G"
1K
1I
1"!
1}
1(
1&
0#!
1u"
1H"
01"
1@
1=
0A
10
1-
1a"
0I"
01
1J"
1l"
1m"
#70000
0)
0<
0.!
0{
0/!
#75000
1)
1<
1.!
1{
1/!
0S!
0Y!
1j#
17$
12!
#80000
0)
0<
0.!
0{
0/!
#85000
1)
1<
1.!
1{
1/!
1+$
1,$
14$
1e
01!
1Q!
1v!
03!
1T!
0Q!
0v!
#90000
0)
0<
0.!
0{
0/!
#95000
1)
1<
1.!
1{
1/!
0+$
1*$
0T!
#100000
0)
0<
0.!
0{
0/!
#105000
1)
1<
1.!
1{
1/!
0*$
1)$
1U!
1r
0p
1]#
0[#
0L!
1J!
#110000
0)
0<
0.!
0{
0/!
#115000
1)
1<
1.!
1{
1/!
1M#
0K#
0)$
1($
1V!
0U!
#120000
0)
0<
0.!
0{
0/!
#125000
1)
1<
1.!
1{
1/!
1}#
0{#
0($
1'$
13!
0V!
1N!
0O!
1}!
1Q!
1k!
1|!
1~!
1S"
#130000
0)
0<
0.!
0{
0/!
#135000
1)
1<
1.!
1{
1/!
0'$
1&$
1!"
1T"
0""
1'"
1)"
0+"
1,"
1D"
1E"
1F"
1k"
1%#
1v!
0|!
0~!
0S"
1w!
0m"
0u"
0a"
0J"
09#
0/"
0B#
0&#
1("
05"
1U"
0'#
1="
1_"
1`"
1'#
1B#
1.#
1K"
1L"
#140000
0)
0<
0.!
0{
0/!
